{
  "language": "Solidity",
  "sources": {
    "contracts/BurnWrapper.sol": {
      "content": "// SPDX-License-Identifier: MIT\npragma solidity 0.8.4;\n\ninterface IERC721 {\n    function ownerOf(uint256 tokenId) external view returns (address owner);\n\n    function safeTransferFrom(\n        address from,\n        address to,\n        uint256 tokenId\n    ) external;\n}\n\ncontract ERC721BurnWrapper {\n    /// @dev 0x4c084f14\n    error NotOwnerOfToken();\n    /// @dev 0x48f5c3ed\n    error InvalidCaller();\n\n    // storage\n    address public rawFusionHolder;\n\n    event BatchBurn(\n        address indexed contractAddress,\n        uint256[] tokenIds\n    );\n\n    event RawFusionHolderIsSet(address _rawFusionHolder);\n\n    // solhint-disable-next-line no-empty-blocks\n    constructor(address _rawFusionHolder) {\n        require(_rawFusionHolder != address(0), \"Invalid address\");\n        rawFusionHolder = _rawFusionHolder;\n        emit RawFusionHolderIsSet(_rawFusionHolder);\n    }\n\n    modifier noZero() {\n        if (msg.sender == address(0)) revert InvalidCaller();\n        _;\n    }\n\n    function setRawFusionHolder(address _rawFusionHolder) external {\n        require(_rawFusionHolder != address(0), \"Invalid address\");\n        rawFusionHolder = _rawFusionHolder;\n        emit RawFusionHolderIsSet(_rawFusionHolder);\n    }\n\n    /// @notice burn multiple token by transferring it to zero address.\n    /// @param erc721Contract the address of the nft contract\n    /// @param tokenIds the list of tokens that will be transferred\n    function safeBatchBurn(\n        IERC721 erc721Contract,\n        uint256[] calldata tokenIds\n    ) external noZero {\n        uint256 length = tokenIds.length;\n        address to = rawFusionHolder;\n        for (uint256 i; i < length; ) {\n            uint256 tokenId = tokenIds[i];\n            address owner = erc721Contract.ownerOf(tokenId);\n            if (msg.sender != owner) {\n                revert NotOwnerOfToken();\n            }\n            erc721Contract.safeTransferFrom(owner, to, tokenId);\n            unchecked {\n                ++i;\n            }\n        }\n        emit BatchBurn(address(erc721Contract), tokenIds);\n    }\n}"
    }
  },
  "settings": {
    "optimizer": {
      "enabled": true,
      "runs": 200
    },
    "outputSelection": {
      "*": {
        "*": [
          "abi",
          "evm.bytecode",
          "evm.deployedBytecode",
          "evm.methodIdentifiers",
          "metadata",
          "storageLayout",
          "devdoc",
          "userdoc",
          "evm.gasEstimates"
        ],
        "": [
          "ast"
        ]
      }
    },
    "metadata": {
      "useLiteralContent": true
    }
  }
}